[
  {
    "id": 0,
    "className": "setting-field",
    "value": "",
    "name": "domen",
    "type": "text",
    "readOnly": true,
    "placeholder": "Enter ssh domen"
  },
  {
    "id": 1,
    "className": "setting-field",
    "value": "",
    "name": "username",
    "type": "text",
    "readOnly": true,
    "placeholder": "Enter ssh username"
  },
  {
    "id": 2,
    "className": "setting-field",
    "value": "",
    "name": "host",
    "type": "text",
    "readOnly": true,
    "placeholder": "Enter ssh host"
  },
  {
    "id": 3,
    "className": "setting-field",
    "value": "sema_logs",
    "name": "uploadLogsDir",
    "type": "text",
    "readOnly": true,
    "placeholder": "Enter ssh upload logs dir"
  },
  {
    "id": 4,
    "className": "setting-field",
    "value": "",
    "name": "password",
    "type": "password",
    "readOnly": true,
    "placeholder": "Enter ssh password"
  }
]
